1,1,1,0,0,1,1,1,1,1,100,0,200,1,1,1,0,1,1,1,1,1,0,0,1,0,1,1,1,0,1,1,1
1,0,1,1,0,1,0,0,0,0,0,1,0,0,0,1,0,0,0,1,0,1,1,0,1,1,1,0,1,0,1,0,1
1,0,0,1,1,1,0,3,1,1,1,1,1,1,0,1,1,1,1,1,0,0,1,0,1,0,0,0,1,0,1,0,1
1,1,0,1,0,1,0,0,0,1,0,0,0,1,0,1,0,0,0,1,1,0,1,0,1,0,3,0,1,1,1,0,1
0,1,1,1,0,1,1,1,0,1,0,1,1,1,0,1,0,3,0,0,1,0,1,1,1,0,1,1,1,0,0,0,1
0,1,0,1,0,0,0,1,0,1,0,0,0,1,1,1,0,1,1,1,1,1,0,0,0,0,0,0,0,0,1,0,1
0,1,0,1,1,1,1,1,0,1,1,1,0,0,0,0,0,1,0,1,0,201,0,101,0,3,1,1,1,1,1,0,1
0,1,0,1,0,0,0,1,0,0,0,1,1,1,1,0,1,1,0,0,0,0,0,3,0,0,0,1,0,0,1,0,1
1,1,0,1,0,3,0,1,0,1,1,1,0,0,0,0,1,0,1,1,1,1,0,202,0,102,1,1,1,0,1,1,1
1,0,0,1,1,1,1,1,1,1,0,0,1,0,1,1,1,0,1,0,0,1,0,0,0,0,0,0,0,0,0,0,1
1,1,0,0,0,0,0,0,0,1,0,0,1,1,1,0,0,0,1,1,0,1,1,1,1,0,1,1,1,0,1,1,1
0,1,0,1,1,1,1,1,0,1,1,0,1,0,0,0,1,0,0,1,0,0,1,0,1,0,1,0,1,0,1,0,0
1,1,0,1,0,1,0,1,0,0,1,0,1,0,1,1,1,1,1,1,0,1,1,0,1,1,1,0,1,0,1,1,1
0,1,1,1,0,1,0,1,1,1,1,0,1,0,0,0,1,0,0,0,0,103,0,0,0,0,0,0,1,0,0,0,1
0,0,0,0,0,1,0,0,0,0,1,0,1,0,1,1,1,1,1,0,1,0,203,1,1,1,1,1,1,1,0,1,1
1,1,1,1,1,1,1,1,1,0,1,0,1,0,1,1,1,1,1,0,1,0,0,0,1,0,0,0,0,1,0,1,0
1,0,0,0,3,0,0,0,1,0,1,0,1,1,1,1,1,1,1,1,1,1,1,0,1,0,1,1,1,1,0,1,0
1,0,1,0,0,0,1,1,1,0,1,0,0,0,1,1,1,1,1,0,0,0,1,0,1,0,1,0,0,1,1,1,0
1,1,1,0,1,0,1,0,0,1,1,1,1,0,1,1,1,1,1,0,3,0,1,0,1,1,1,0,1,1,0,1,1
0,0,1,0,1,0,1,0,0,0,0,0,1,0,0,0,1,0,0,0,1,0,1,1,0,0,1,0,1,0,0,1,0
0,1,1,1,1,0,1,0,1,1,1,0,1,1,1,0,1,0,1,0,1,0,0,1,1,0,1,0,1,0,1,1,1
0,1,1,0,0,0,1,0,0,0,1,0,1,0,1,1,1,1,1,0,1,1,1,1,0,0,1,1,1,0,1,0,0
1,0,1,1,1,0,1,104,0,1,1,1,1,0,0,0,0,0,1,0,0,0,0,1,1,0,1,0,1,0,1,1,1
1,0,0,1,1,0,3,0,204,1,0,0,0,0,1,1,1,0,1,1,1,1,1,1,1,0,1,0,1,0,3,0,1
1,1,0,1,0,0,0,0,1,1,1,1,1,1,1,0,1,0,0,0,0,0,0,0,0,0,1,0,1,0,0,0,1
0,1,0,1,0,0,1,0,1,0,1,0,0,0,0,0,1,1,1,1,1,1,1,0,1,1,1,1,1,1,1,1,1
0,1,1,1,1,0,1,0,1,0,1,0,1,0,1,0,0,0,0,0,0,1,1,0,0,0,0,0,0,0,1,1,1
1,1,1,0,1,0,1,0,1,0,1,0,1,1,1,1,1,0,1,1,1,1,1,0,3,1,1,1,1,0,0,0,1
1,0,0,0,0,0,1,0,0,0,0,0,1,0,0,1,0,0,0,0,0,0,1,0,1,0,0,0,1,1,1,0,1
1,0,1,0,3,1,1,1,1,1,1,0,1,0,0,1,0,1,0,1,1,1,1,0,1,1,1,0,1,0,1,1,1
1,0,1,0,0,0,1,0,0,0,1,0,1,0,1,1,1,1,1,1,0,0,0,0,0,1,1,0,1,0,0,1,1
1,0,1,0,1,0,1,1,1,0,1,0,1,0,1,0,0,0,0,0,0,1,1,1,0,0,1,0,1,0,1,0,1
1,1,1,1,1,1,1,0,1,0,1,1,1,1,1,1,1,1,1,1,1,1,0,1,1,1,1,0,1,1,1,1,1