1,1,1,0,0,0,0,1,1,1,1,1,0,0,0,0,1,1,1,1,1,1,1,1,1,1,1,1,0,1,1,1,1,1,1,1,1,1,1,1,1,1,1,1,1,1,1,1,1,1,1,1,0,1,1,1,1,1,1,1,1,1,1,1,1,0,0,0,0,1,1,1,1,1,0,0,0,0,1,1,1
1,1,0,3,3,3,3,0,1,1,1,0,3,3,3,3,0,1,1,1,1,1,1,1,1,1,1,0,0,0,1,1,1,1,1,1,1,1,1,1,1,1,1,1,1,1,1,1,1,1,1,0,0,0,1,1,1,1,1,1,1,1,1,1,0,3,3,3,3,0,1,1,1,0,3,3,3,3,0,1,1
100,0,3,3,0,0,3,3,0,1,0,3,3,0,0,3,3,0,1,1,1,1,1,1,1,1,0,201,0,102,0,1,1,1,1,1,1,1,1,1,1,1,1,1,1,1,1,1,1,1,0,211,0,112,0,1,1,1,1,1,1,1,1,0,3,3,0,0,3,3,0,1,0,3,3,0,0,3,3,0,110
0,3,3,0,0,0,0,3,3,0,3,3,0,0,0,0,3,3,0,1,1,1,1,1,1,1,0,3,0,3,0,1,1,1,1,1,1,1,1,1,1,1,1,1,1,1,1,1,1,1,0,3,0,3,0,1,1,1,1,1,1,1,0,3,3,0,0,0,0,3,3,0,3,3,0,0,0,0,3,3,0
0,3,0,0,0,0,0,0,3,3,3,0,0,0,0,0,0,3,0,1,1,1,1,1,1,0,3,3,0,3,3,0,1,1,1,1,1,1,1,1,1,1,1,1,1,1,1,1,1,0,3,3,0,3,3,0,1,1,1,1,1,1,0,3,0,0,0,0,0,0,3,3,3,0,0,0,0,0,0,3,0
0,3,3,0,0,0,0,0,0,0,0,0,0,0,0,0,3,3,0,1,1,1,1,1,1,0,3,0,0,0,3,0,1,1,1,1,1,1,1,1,1,1,1,1,1,1,1,1,1,0,3,0,0,0,3,0,1,1,1,1,1,1,0,3,3,0,0,0,0,0,0,0,0,0,0,0,0,0,3,3,0
1,0,3,3,0,0,0,0,0,0,0,0,0,0,0,3,3,0,1,0,0,0,0,0,0,3,3,0,0,0,3,3,0,0,0,0,0,0,1,1,1,1,1,0,0,0,0,0,0,3,3,0,0,0,3,3,0,0,0,0,0,0,1,0,3,3,0,0,0,0,0,0,0,0,0,0,0,3,3,0,1
1,1,0,3,3,0,0,0,0,0,0,0,0,0,3,3,0,1,1,0,3,3,3,3,3,3,0,0,0,0,0,3,3,3,3,3,3,0,1,1,1,1,1,0,3,3,3,3,3,3,0,0,0,0,0,3,3,3,3,3,3,0,1,1,0,3,3,0,0,0,0,0,0,0,0,0,3,3,0,1,1
1,1,1,0,3,3,0,0,0,0,0,0,0,3,3,0,1,1,1,1,0,3,3,0,0,0,0,0,0,0,0,0,0,0,3,3,0,1,1,1,1,1,1,1,0,3,3,0,0,0,0,0,0,0,0,0,0,0,3,3,0,1,1,1,1,0,3,3,0,0,0,0,0,0,0,3,3,0,1,1,1
1,1,1,1,0,3,3,0,0,0,0,0,3,3,0,1,1,1,1,1,1,0,3,3,0,0,0,0,0,0,0,0,0,3,3,0,1,1,1,1,1,1,1,1,1,0,3,3,0,0,0,0,0,0,0,0,0,3,3,0,1,1,1,1,1,1,0,3,3,0,0,0,0,0,3,3,0,1,1,1,1
1,1,1,1,1,0,3,3,0,0,0,3,3,0,1,1,1,1,1,1,1,1,0,3,3,0,0,0,0,0,0,0,3,3,0,1,1,1,1,1,1,1,1,1,1,1,0,3,3,0,0,0,0,0,0,0,3,3,0,1,1,1,1,1,1,1,1,0,3,3,0,0,0,3,3,0,1,1,1,1,1
1,1,1,1,1,1,0,3,3,0,3,3,0,1,1,1,1,1,1,1,1,1,1,0,3,0,0,0,0,0,0,0,3,0,1,1,1,1,1,1,1,1,1,1,1,1,1,0,3,0,0,0,0,0,0,0,3,0,1,1,1,1,1,1,1,1,1,1,0,3,3,0,3,3,0,1,1,1,1,1,1
1,1,1,1,1,1,1,0,200,0,101,0,1,1,1,1,1,1,1,1,1,1,1,0,3,0,0,0,0,0,0,0,3,0,1,1,1,1,1,1,1,1,1,1,1,1,1,0,3,0,0,0,0,0,0,0,3,0,1,1,1,1,1,1,1,1,1,1,1,0,210,0,111,0,1,1,1,1,1,1,1
1,1,1,1,1,1,1,1,0,0,0,1,1,1,1,1,1,1,1,1,1,1,0,3,3,0,3,3,3,3,3,0,3,3,0,1,1,1,1,1,1,1,1,1,1,1,0,3,3,0,3,3,3,3,3,0,3,3,0,1,1,1,1,1,1,1,1,1,1,1,0,0,0,1,1,1,1,1,1,1,1
1,1,1,1,1,1,1,1,1,0,1,1,1,1,1,1,1,1,1,1,1,1,0,3,3,3,3,0,0,0,3,3,3,3,0,1,1,1,1,1,1,1,1,1,1,1,0,3,3,3,3,0,0,0,3,3,3,3,0,1,1,1,1,1,1,1,1,1,1,1,1,0,1,1,1,1,1,1,1,1,1
1,1,1,0,0,0,0,0,1,1,1,1,1,1,1,1,1,1,1,1,1,0,3,3,3,0,0,1,1,1,0,0,3,3,3,0,1,1,1,1,1,1,1,1,1,0,3,3,3,0,0,1,1,1,0,0,3,3,3,0,1,1,1,1,1,1,1,1,1,1,1,1,0,0,0,0,0,1,1,1,1
1,1,0,3,3,3,3,0,0,0,0,1,1,1,1,1,1,1,1,1,1,0,3,3,0,1,1,1,1,1,1,1,0,3,3,0,1,1,1,1,1,1,1,1,1,0,3,3,0,1,1,1,1,1,1,1,0,3,3,0,1,1,1,1,1,1,1,1,1,1,1,0,3,3,3,3,0,0,0,0,1
1,1,0,3,0,0,3,3,0,1,1,1,1,1,1,1,1,1,1,1,1,0,0,0,1,1,1,1,1,1,1,1,1,0,0,0,1,1,1,1,1,1,1,1,1,0,0,0,1,1,1,1,1,1,1,1,1,0,0,0,1,1,1,1,1,1,1,1,1,1,1,0,3,0,0,3,3,0,1,1,1
1,0,3,3,0,0,0,3,3,0,0,1,1,1,1,1,1,1,1,1,1,1,1,1,1,1,1,1,1,1,1,1,1,1,1,1,1,1,1,1,1,1,1,1,1,1,1,1,1,1,1,1,1,1,1,1,1,1,1,1,1,1,1,1,1,1,1,1,1,1,0,3,3,0,0,0,3,3,0,0,1
1,0,3,3,0,0,0,0,3,3,3,0,1,1,1,1,1,1,1,1,1,1,1,1,1,1,1,1,1,1,1,1,1,1,1,1,1,1,1,1,1,1,1,1,1,1,1,1,1,1,1,1,1,1,1,1,1,1,1,1,1,1,1,1,1,1,1,1,1,1,0,3,3,0,0,0,0,3,3,3,0
1,1,0,3,3,0,0,3,3,0,0,1,1,1,1,1,1,1,1,1,1,1,1,1,1,1,1,1,1,1,1,1,1,1,1,1,1,1,1,1,1,1,1,1,1,1,1,1,1,1,1,1,1,1,1,1,1,1,1,1,1,1,1,1,1,1,1,1,1,1,1,0,3,3,0,0,3,3,0,0,1
1,1,1,0,3,0,0,3,0,1,1,1,1,1,1,1,1,1,1,1,1,1,1,1,1,1,1,1,1,1,1,1,1,1,1,1,1,1,1,1,1,1,1,1,1,1,1,1,1,1,1,1,1,1,1,1,1,1,1,1,1,1,1,1,1,1,1,1,1,1,1,1,0,3,0,0,3,0,1,1,1
1,1,0,3,3,0,0,3,3,0,1,1,1,1,1,1,1,1,1,1,1,1,1,1,1,1,1,1,1,1,1,1,1,1,1,1,1,1,1,1,1,1,1,1,1,1,1,1,1,1,1,1,1,1,1,1,1,1,1,1,1,1,1,1,1,1,1,1,1,1,1,0,3,3,0,0,3,3,0,1,1
1,0,3,3,0,0,0,0,3,3,0,1,1,1,1,1,1,1,1,1,1,1,1,1,1,1,1,1,1,1,1,1,1,1,1,1,1,1,1,1,1,1,1,1,1,1,1,1,1,1,1,1,1,1,1,1,1,1,1,1,1,1,1,1,1,1,1,1,1,1,0,3,3,0,0,0,0,3,3,0,1
0,3,3,0,0,0,0,0,0,3,3,0,1,1,1,1,1,1,1,1,1,1,1,1,1,1,1,1,1,1,1,1,1,1,1,1,1,1,1,1,1,1,1,1,1,1,1,1,1,1,1,1,1,1,1,1,1,1,1,1,1,1,1,1,1,1,1,1,1,0,3,3,0,0,0,0,0,0,3,3,0
0,3,0,0,0,0,0,0,0,0,3,0,1,1,1,1,1,1,1,1,1,1,1,1,1,1,1,1,1,1,1,1,1,1,1,1,1,1,1,1,1,1,1,1,1,1,1,1,1,1,1,1,1,1,1,1,1,1,1,1,1,1,1,1,1,1,1,1,1,0,3,0,0,0,0,0,0,0,0,3,0
0,3,3,3,3,0,199,3,0,3,3,0,1,1,1,1,1,1,1,1,1,1,1,1,1,1,1,1,1,1,1,1,1,1,1,1,1,1,1,1,1,1,1,1,1,1,1,1,1,1,1,1,1,1,1,1,1,1,1,0,0,0,0,0,0,0,0,0,1,0,3,3,3,3,0,199,3,0,3,3,0
0,0,0,3,3,0,0,3,3,3,0,0,1,1,1,1,1,1,1,1,1,1,1,1,1,1,1,1,1,1,1,1,1,1,1,1,1,1,1,1,1,1,1,1,1,1,1,1,1,1,1,1,1,1,1,1,1,1,1,0,299,3,3,3,3,3,3,0,1,0,0,0,3,3,0,0,3,3,3,0,0
1,1,0,202,0,1,1,0,3,0,1,1,1,1,1,1,1,1,1,1,1,1,1,1,0,0,0,0,0,0,0,0,0,0,0,0,0,0,0,0,0,0,1,1,1,1,1,1,1,1,1,1,1,1,1,1,1,1,1,0,3,3,3,3,3,3,3,0,1,1,1,0,212,0,1,1,0,3,0,1,1
1,0,0,0,1,1,1,1,0,0,0,1,1,1,1,1,1,1,1,1,1,1,1,1,0,3,3,3,3,3,3,3,3,0,3,3,3,3,3,3,3,0,1,1,1,1,1,1,1,1,1,1,1,1,1,1,1,1,1,0,0,0,0,0,3,3,3,0,1,1,0,0,0,1,1,1,1,0,0,0,1
0,0,0,0,1,1,1,1,0,0,0,0,1,1,1,1,1,1,1,1,1,1,1,0,0,3,3,3,3,3,3,3,0,0,3,3,3,3,3,3,3,0,1,1,1,1,1,1,1,1,1,1,1,1,1,1,1,1,1,1,1,1,1,0,3,3,3,0,1,0,0,0,0,1,1,1,1,0,0,0,0
1,1,1,1,1,1,1,1,1,1,1,1,1,1,1,1,1,1,1,1,1,1,0,0,3,3,3,3,3,3,3,3,0,3,3,3,0,3,3,3,0,0,1,1,1,1,1,1,1,1,1,1,1,1,1,1,1,1,1,1,1,1,0,0,3,3,3,0,1,1,1,1,1,1,1,1,1,1,1,1,1
1,1,1,1,1,1,1,1,1,0,0,0,0,0,1,1,1,1,1,1,1,1,0,3,3,3,3,0,3,3,3,0,0,3,3,0,0,3,3,0,1,1,1,1,1,1,1,1,1,1,1,1,1,1,1,1,1,1,1,1,1,1,0,3,3,3,0,1,1,1,1,1,1,1,1,1,1,1,1,1,1
1,1,1,1,1,1,1,1,0,0,3,3,3,0,0,0,1,1,1,1,1,0,0,3,3,3,0,0,3,3,0,0,3,3,3,0,3,3,3,0,1,1,1,1,1,1,1,1,1,1,1,1,1,1,1,1,1,1,1,1,1,0,0,3,3,0,1,1,1,1,1,1,1,1,1,1,1,1,1,1,1
1,1,1,1,1,1,1,0,0,3,3,3,3,3,3,0,0,1,1,1,0,0,3,3,3,3,0,3,3,3,0,3,3,3,0,0,3,3,0,0,1,1,1,1,1,1,1,1,1,1,1,1,1,1,1,1,1,1,1,1,0,0,3,3,3,0,1,1,1,1,1,1,1,1,1,1,1,1,1,1,1
1,1,1,1,1,0,0,3,3,3,0,0,0,3,3,3,0,1,1,1,0,3,3,3,3,0,0,3,3,0,0,3,3,0,0,3,3,3,0,1,1,1,1,1,1,1,1,1,1,1,1,1,1,1,1,1,1,1,0,0,0,3,3,3,3,0,1,1,1,1,1,1,1,1,1,1,1,1,1,1,1
1,1,1,1,1,0,3,3,3,0,0,0,0,0,3,3,0,0,1,0,0,3,3,3,0,0,3,3,0,0,3,3,3,0,3,3,3,0,0,1,1,1,1,1,1,1,1,1,1,1,1,1,1,1,1,1,1,0,0,3,3,3,3,3,3,0,1,1,1,1,1,1,1,1,1,1,1,1,1,1,1
1,1,0,0,0,3,3,3,0,0,0,0,0,0,3,3,3,0,0,0,3,3,3,3,0,3,3,3,0,3,3,3,0,0,3,3,0,0,0,0,0,0,0,0,0,0,0,0,0,0,0,0,0,0,0,0,0,0,3,3,3,3,3,3,0,0,1,1,1,1,1,1,1,1,1,1,1,1,1,1,1
1,1,0,3,3,3,3,3,3,0,0,0,0,3,3,3,3,3,3,3,3,3,3,3,0,3,3,3,3,3,3,3,0,3,3,3,3,0,3,3,3,3,3,0,3,3,3,3,3,3,3,3,3,3,3,3,3,3,3,3,3,3,3,3,0,1,1,1,1,1,1,1,1,1,1,1,1,1,1,1,1
1,1,0,3,3,3,3,3,3,3,3,0,3,3,3,3,3,3,3,3,3,3,3,0,0,3,3,3,3,3,3,0,3,3,3,3,3,0,3,3,3,3,3,0,3,3,3,3,3,3,3,3,3,3,3,3,3,3,3,3,3,3,3,3,0,1,1,1,1,1,1,1,1,1,1,1,1,1,1,1,1
1,1,0,0,0,0,0,0,3,3,3,0,3,3,3,3,3,3,3,3,3,3,0,0,3,3,3,3,3,0,0,0,3,3,3,3,3,3,3,3,1,3,3,0,140,3,3,3,3,3,3,3,3,3,3,3,3,3,3,3,3,3,3,0,0,1,1,1,1,1,1,1,1,1,1,1,1,1,1,1,1
1,1,1,1,1,1,1,0,3,3,3,0,0,0,0,0,0,0,0,0,0,0,0,0,0,0,0,0,0,3,3,3,3,3,3,3,3,0,3,3,3,3,3,0,3,3,3,3,3,3,3,3,3,3,3,3,3,3,3,3,3,3,0,0,1,1,1,1,1,1,1,1,1,1,1,1,1,1,1,1,1
1,1,1,1,1,1,1,0,3,3,3,0,3,3,3,3,3,3,3,3,3,3,3,3,3,3,3,3,3,3,3,3,3,3,3,3,3,0,3,3,3,3,3,0,3,3,3,3,3,3,3,3,3,3,3,3,3,3,3,3,3,0,0,1,1,1,1,1,1,1,1,1,1,1,1,1,1,1,1,1,1
1,1,0,0,0,0,0,0,3,3,3,0,3,3,3,3,3,3,3,3,3,3,3,3,3,3,3,3,3,3,3,3,3,3,3,3,3,0,0,0,0,0,0,0,3,3,3,3,3,3,3,3,3,3,3,3,3,3,3,0,0,0,1,1,1,1,1,1,1,1,1,1,1,1,1,1,1,1,1,1,1
1,1,0,240,3,3,3,3,3,3,3,0,3,3,3,3,3,3,3,3,3,3,3,3,3,3,3,3,3,3,3,3,3,3,3,3,3,3,3,3,3,3,3,0,3,3,3,3,3,3,3,3,3,3,3,3,3,0,0,0,1,1,1,1,1,1,1,1,1,1,1,1,1,1,1,1,1,1,1,1,1
1,1,0,0,3,3,3,3,3,3,0,0,0,0,0,0,0,0,0,0,0,0,0,0,0,0,0,0,0,0,0,0,0,0,0,0,0,0,0,0,0,0,0,0,0,0,0,0,0,0,0,0,0,0,0,0,0,0,1,1,1,1,1,1,1,1,1,1,1,1,1,1,1,1,1,1,1,1,1,1,1
1,1,1,0,3,3,3,3,3,0,0,1,1,1,1,1,1,1,1,1,1,1,1,1,0,3,3,3,3,0,3,3,0,1,1,1,1,1,1,1,1,1,1,1,1,1,1,1,0,3,3,3,0,3,3,3,0,1,1,1,1,1,1,1,1,1,1,1,1,1,1,1,1,1,1,1,1,1,1,1,1
1,1,1,0,0,3,3,3,0,0,1,1,1,1,1,1,1,1,1,1,1,1,1,1,0,3,3,3,3,0,3,3,0,1,1,1,1,1,1,1,1,1,1,1,1,1,1,1,0,3,3,3,0,3,3,3,0,1,1,1,1,1,1,1,1,1,1,1,1,1,1,1,1,1,1,1,1,1,1,1,1
1,1,1,1,0,0,0,0,0,1,1,1,1,1,1,1,1,1,1,1,1,1,1,1,0,3,3,3,3,0,3,3,0,1,1,1,1,1,1,1,1,1,1,1,1,1,1,0,0,3,3,3,0,3,3,3,0,1,1,1,1,1,1,1,1,1,1,1,1,1,1,1,1,1,1,1,1,1,1,1,1
1,1,1,1,1,1,1,1,1,1,1,1,1,1,1,1,1,1,1,1,1,1,1,1,0,3,3,3,3,0,3,3,0,1,1,1,1,1,1,1,1,1,1,1,1,1,1,0,3,3,3,3,0,3,3,3,0,1,1,1,1,1,1,1,1,1,1,1,1,1,1,1,1,1,1,1,1,1,1,1,1
1,1,1,0,0,0,0,0,1,1,1,1,1,1,1,1,1,1,1,1,1,1,1,0,0,3,3,3,3,0,3,0,0,1,1,1,1,1,1,1,1,1,1,1,1,1,0,3,3,3,3,3,0,3,0,0,0,1,1,1,1,1,1,1,1,1,1,1,1,1,1,1,0,0,0,0,0,1,1,1,1
1,1,0,3,3,3,3,0,0,0,0,1,1,1,1,1,1,1,1,1,1,1,1,0,3,3,3,3,3,0,3,0,1,1,1,1,1,1,1,1,1,1,1,1,1,0,0,3,3,3,3,3,0,0,0,1,1,1,1,1,1,1,1,1,1,1,1,1,1,1,1,0,3,3,3,3,0,0,0,0,1
1,1,0,3,0,0,3,3,0,1,1,1,1,1,1,1,1,1,1,1,1,1,0,0,3,3,3,3,3,0,0,0,1,1,1,1,1,1,1,1,1,1,1,1,0,0,3,3,3,3,3,3,0,0,1,1,1,1,1,1,1,1,1,1,1,1,1,1,1,1,1,0,3,0,0,3,3,0,1,1,1
1,0,3,3,0,0,0,3,3,0,0,1,1,1,1,1,1,1,1,1,0,0,0,3,3,3,3,3,0,0,1,1,1,1,1,1,1,1,1,1,1,1,1,0,0,3,3,3,3,3,3,3,0,0,1,1,1,1,1,1,1,1,1,1,1,1,1,1,1,1,0,3,3,0,0,0,3,3,0,0,1
1,0,3,3,0,0,0,0,3,3,3,0,1,1,1,1,1,1,0,0,3,3,3,3,3,3,3,0,0,1,1,1,1,1,1,1,1,1,1,1,1,1,1,0,3,3,3,3,3,3,3,0,0,1,1,1,1,1,1,1,1,1,1,1,1,1,1,1,1,1,0,3,3,0,0,0,0,3,3,3,0
1,1,0,3,3,0,0,3,3,0,0,1,1,1,1,1,1,1,0,3,3,3,3,3,3,3,3,0,1,1,1,1,1,1,1,1,1,1,1,1,1,1,1,0,3,3,3,3,3,3,0,0,1,1,1,1,1,1,1,1,1,1,1,1,1,1,1,1,1,1,1,0,3,3,0,0,3,3,0,0,1
1,1,1,0,3,0,0,3,0,1,1,1,1,1,1,1,1,1,0,3,3,3,3,3,3,3,0,0,1,1,1,1,1,1,1,1,1,1,1,1,1,1,1,0,0,0,0,0,0,0,0,1,1,1,1,1,1,1,1,1,1,1,1,1,1,1,1,1,1,1,1,1,0,3,0,0,3,0,1,1,1
1,1,0,3,3,0,0,3,3,0,1,1,1,1,1,1,1,1,0,0,0,0,0,0,0,0,0,1,1,1,1,1,1,1,1,1,1,1,1,1,1,1,1,1,1,1,1,1,1,1,1,1,1,1,1,1,1,1,1,1,1,1,1,1,1,1,1,1,1,1,1,0,3,3,0,0,3,3,0,1,1
1,0,3,3,0,0,0,0,3,3,0,1,1,1,1,1,1,1,1,1,1,1,1,1,1,1,1,1,1,1,1,1,1,1,1,1,1,1,1,1,1,1,1,1,1,1,1,1,1,1,1,1,1,1,1,1,1,1,1,1,1,1,1,1,1,1,1,1,1,1,0,3,3,0,0,0,0,3,3,0,1
0,3,3,0,0,0,0,0,0,3,3,0,1,1,1,1,1,1,1,1,1,1,1,1,1,1,1,1,1,1,1,1,1,1,1,1,1,1,1,1,1,1,1,1,1,1,1,1,1,1,1,1,1,1,1,1,1,1,1,1,1,1,1,1,1,1,1,1,1,0,3,3,0,0,0,0,0,0,3,3,0
0,3,0,0,0,0,0,0,0,0,3,0,1,1,1,1,1,1,1,1,1,1,1,1,1,1,1,1,1,1,1,1,1,1,1,1,1,1,1,1,1,1,1,1,1,1,1,1,1,1,1,1,1,1,1,1,1,1,1,1,1,1,1,1,1,1,1,1,1,0,3,0,0,0,0,0,0,0,0,3,0
0,3,3,3,3,0,199,3,0,3,3,0,1,1,1,1,1,1,1,1,1,1,1,1,1,1,1,1,1,1,1,1,1,1,1,1,1,1,1,1,1,1,1,1,1,1,1,1,1,1,1,1,1,1,1,1,1,1,1,1,1,1,1,1,1,1,1,1,1,0,3,3,3,3,0,199,3,0,3,3,0
0,0,0,3,3,0,0,3,3,3,0,0,1,1,1,1,1,1,1,1,1,1,1,1,1,1,1,1,1,1,1,1,1,1,1,1,1,1,1,1,1,1,1,1,1,1,1,1,1,1,1,1,1,1,1,1,1,1,1,1,1,1,1,1,1,1,1,1,1,0,0,0,3,3,0,0,3,3,3,0,0
1,1,0,232,0,1,1,0,3,0,1,1,1,1,1,1,1,1,1,1,1,1,1,1,1,1,1,1,0,1,1,1,1,1,1,1,1,1,1,1,1,1,1,1,1,1,1,1,1,1,1,1,0,1,1,1,1,1,1,1,1,1,1,1,1,1,1,1,1,1,1,0,222,0,1,1,0,3,0,1,1
1,0,1,0,1,1,1,1,0,1,0,1,1,1,1,1,1,1,1,1,1,1,1,1,1,1,1,0,0,0,1,1,1,1,1,1,1,1,1,1,1,1,1,1,1,1,1,1,1,1,1,0,0,0,1,1,1,1,1,1,1,1,1,1,1,1,1,1,1,1,0,0,0,1,1,1,1,0,0,0,1
0,0,0,0,1,1,1,1,0,0,0,0,1,1,1,1,1,1,1,1,1,1,1,1,1,1,0,231,0,132,0,1,1,1,1,1,1,1,1,1,1,1,1,1,1,1,1,1,1,1,0,221,0,122,0,1,1,1,1,1,1,1,1,1,1,1,1,1,1,0,0,0,0,1,1,1,1,0,0,0,0
1,1,1,0,0,0,0,1,1,1,1,1,0,0,0,0,1,1,1,1,1,1,1,1,1,1,0,3,0,3,0,1,1,1,1,1,1,1,1,1,1,1,1,1,1,1,1,1,1,1,0,3,0,3,0,1,1,1,1,1,1,1,1,1,1,0,0,0,0,1,1,1,1,1,0,0,0,0,1,1,1
1,1,0,3,3,3,3,0,1,1,1,0,3,3,3,3,0,1,1,1,1,1,1,1,1,0,3,3,0,3,3,0,1,1,1,1,1,1,1,1,1,1,1,1,1,1,1,1,1,0,3,3,0,3,3,0,1,1,1,1,1,1,1,1,0,3,3,3,3,0,1,1,1,0,3,3,3,3,0,1,1
1,0,3,3,0,0,3,3,0,1,0,3,3,0,0,3,3,0,1,1,1,1,1,1,1,0,3,0,0,0,3,0,1,1,1,1,1,1,1,1,1,1,1,1,1,1,1,1,1,0,3,0,0,0,3,0,1,1,1,1,1,1,1,0,3,3,0,0,3,3,0,1,0,3,3,0,0,3,3,0,1
0,3,3,0,0,0,0,3,3,0,3,3,0,0,0,0,3,3,0,0,0,0,0,0,0,3,3,0,0,0,3,3,0,0,0,0,0,0,1,1,1,1,1,0,0,0,0,0,0,3,3,0,0,0,3,3,0,0,0,0,0,0,0,3,3,0,0,0,0,3,3,0,3,3,0,0,0,0,3,3,0
0,3,0,0,0,0,0,0,3,3,3,0,0,0,0,0,0,3,0,0,3,3,3,3,3,3,0,0,0,0,0,3,3,3,3,3,3,0,1,1,1,1,1,0,3,3,3,3,3,3,0,0,0,0,0,3,3,3,3,3,3,0,0,3,0,0,0,0,0,0,3,3,3,0,0,0,0,0,0,3,0
0,3,3,0,0,0,0,0,0,0,0,0,0,0,0,0,3,3,0,1,0,3,3,0,0,0,0,0,0,0,0,0,0,0,3,3,0,1,1,1,1,1,1,1,0,3,3,0,0,0,0,0,0,0,0,0,0,0,3,3,0,1,0,3,3,0,0,0,0,0,0,0,0,0,0,0,0,0,3,3,0
1,0,3,3,0,0,0,0,0,0,0,0,0,0,0,3,3,0,1,1,1,0,3,3,0,0,0,0,0,0,0,0,0,3,3,0,1,1,1,1,1,1,1,1,1,0,3,3,0,0,0,0,0,0,0,0,0,3,3,0,1,1,1,0,3,3,0,0,0,0,0,0,0,0,0,0,0,3,3,0,1
1,1,0,3,3,0,0,0,0,0,0,0,0,0,3,3,0,1,1,1,1,1,0,3,3,0,0,0,0,0,0,0,3,3,0,1,1,1,1,1,1,1,1,1,1,1,0,3,3,0,0,0,0,0,0,0,3,3,0,1,1,1,1,1,0,3,3,0,0,0,0,0,0,0,0,0,3,3,0,1,1
1,1,1,0,3,3,0,0,0,0,0,0,0,3,3,0,1,1,1,1,1,1,1,0,3,0,0,0,0,0,0,0,3,0,1,1,1,1,1,1,1,1,1,1,1,1,1,0,3,0,0,0,0,0,0,0,3,0,1,1,1,1,1,1,1,0,3,3,0,0,0,0,0,0,0,3,3,0,1,1,1
1,1,1,1,0,3,3,0,0,0,0,0,3,3,0,1,1,1,1,1,1,1,1,0,3,0,0,0,0,0,0,0,3,0,1,1,1,1,1,1,1,1,1,1,1,1,1,0,3,0,0,0,0,0,0,0,3,0,1,1,1,1,1,1,1,1,0,3,3,0,0,0,0,0,3,3,0,1,1,1,1
1,1,1,1,1,0,3,3,0,0,0,3,3,0,1,1,1,1,1,1,1,1,0,3,3,0,3,3,3,3,3,0,3,3,0,1,1,1,1,1,1,1,1,1,1,1,0,3,3,0,3,3,3,3,3,0,3,3,0,1,1,1,1,1,1,1,1,0,3,3,0,0,0,3,3,0,1,1,1,1,1
1,1,1,1,1,1,0,3,3,0,3,3,0,1,1,1,1,1,1,1,1,1,0,3,3,3,3,0,0,0,3,3,3,3,0,1,1,1,1,1,1,1,1,1,1,1,0,3,3,3,3,0,0,0,3,3,3,3,0,1,1,1,1,1,1,1,1,1,0,3,3,0,3,3,0,1,1,1,1,1,1
1,1,1,1,1,1,1,0,230,0,131,0,1,1,1,1,1,1,1,1,1,0,3,3,3,0,0,1,1,1,0,0,3,3,3,0,1,1,1,1,1,1,1,1,1,0,3,3,3,0,0,1,1,1,0,0,3,3,3,0,1,1,1,1,1,1,1,1,1,0,220,0,121,0,1,1,1,1,1,1,1
1,1,1,1,1,1,1,1,0,0,0,1,1,1,1,1,1,1,1,1,1,0,3,3,0,1,1,1,1,1,1,1,0,3,3,0,1,1,1,1,1,1,1,1,1,0,3,3,0,1,1,1,1,1,1,1,0,3,3,0,1,1,1,1,1,1,1,1,1,1,0,0,0,1,1,1,1,1,1,1,1
1,1,130,1,1,1,1,1,1,0,1,1,1,1,1,1,1,1,1,1,1,0,0,0,1,1,1,1,1,1,1,1,1,0,0,0,1,1,1,1,1,1,1,1,1,0,0,0,1,1,1,1,1,1,1,1,1,0,0,0,1,1,1,1,1,1,1,1,1,1,1,0,1,1,1,1,1,1,120,1,1